Place,Name,Sex,BirthYear,Country,Equipment,Division,BodyweightKg,WeightClassKg,Squat1Kg,Squat2Kg,Squat3Kg,Best3SquatKg,Bench1Kg,Bench2Kg,Bench3Kg,Best3BenchKg,Deadlift1Kg,Deadlift2Kg,Deadlift3Kg,Best3DeadliftKg,TotalKg,Event,BirthDate
1,Lily Falcone,F,2004,USA,Raw,Juniors,46.25,47,107.5,110,113,113,45,47.5,50,50,117.5,127.5,132.5,132.5,295.5,SBD,
2,Ayana Rivera,F,2004,USA,Raw,Juniors,46.1,47,-87.5,87.5,90,90,45,47.5,50,50,90,-95,-95,90,230,SBD,
1,Blair Dunn,F,2004,USA,Raw,Juniors,56.3,57,112.5,117.5,120,120,62.5,67.5,-70,67.5,132.5,140,-150,140,327.5,SBD,
2,Nicole Cantelon,F,2001,Canada,Raw,Juniors,56.55,57,97.5,105,110,110,52.5,55,-57.5,55,135,-142.5,-142.5,135,300,SBD,
1,Joanna Rieber,F,1976,Canada,Raw,Masters 1,51.5,52,137.5,145,150,150,90,97.5,-103,97.5,147.5,157.5,165,165,412.5,SBD,
2,Shakira Oxley-Tsai,F,1974,Belize,Raw,Masters 1,50.75,52,75,80,82.5,82.5,45,47.5,50,50,115,122.5,127.5,127.5,260,SBD,
1,Jennifer McConnell,F,1982,Canada,Raw,Masters 1,56.25,57,105,115,120,120,71,76,-78,76,125,135,142.5,142.5,338.5,SBD,
2,Kelly Tonini,F,1981,USA,Raw,Masters 1,56.4,57,-105,112.5,117.5,117.5,62.5,67.5,-72.5,67.5,127.5,132.5,145,145,330,SBD,
3,Jenmy Espinal,F,1977,Dominican Republic,Raw,Masters 1,55.4,57,87.5,97.5,105,105,42.5,47.5,-52.5,47.5,107.5,115,125,125,277.5,SBD,
1,Melissa Forbis,F,1966,USA,Raw,Masters 2,51.6,52,95,100.5,-103,100.5,-50,50,-52.5,50,107.5,115,120,120,270.5,SBD,
1,Suzanne Hartwig-Gary,F,1968,USA,Raw,Masters 2,53.45,57,125,131.5,136,136,62.5,67.5,72.5,72.5,135,145.5,-150,145.5,354,SBD,
1,Alida Sharp,F,,Belize,Raw,Masters 3,51.45,52,72.5,77.5,82.5,82.5,35,40,42.5,42.5,110,120,125,125,250,SBD,
1,Dora Justice,F,1957,USA,Raw,Masters 3,55.65,57,72.5,80,82.5,82.5,70,72.5,-78,72.5,102.5,110,115,115,270,SBD,
2,Loraine Efron,F,,USA,Raw,Masters 3,55.9,57,-70,72.5,-95,72.5,42.5,47.5,-50,47.5,95,100,-105,100,220,SBD,
1,Susan Elwyn,F,1947,US Virgin Islands,Raw,Masters 4,46.6,47,65,75,77.5,77.5,30,-35,35,35,102.5,-112.5,-120.5,102.5,215,SBD,
1,Lois Sprang,F,1949,Trinidad and Tobago,Raw,Masters 4,55.65,57,75,-85,85,85,35,40,-42.5,40,110,112.5,-121,112.5,237.5,SBD,
1,Ruth Li,F,1990,Trinidad and Tobago,Raw,Open,45.55,47,107.5,112.5,-120,112.5,55,57.5,-60,57.5,137.5,-142.5,-142.5,137.5,307.5,SBD,
1,Catherine Nguyen,F,1996,Canada,Raw,Open,51.85,52,117.5,125,130,130,77.5,-80,80,80,145,152.5,160,160,370,SBD,
1,Kayla Casey,F,1987,Canada,Raw,Open,56.3,57,145,150.5,154,154,88,93,95,95,160,170,-180,170,419,SBD,
2,Kaye Johnson,F,1989,USA,Raw,Open,56.4,57,130,137.5,-142.5,137.5,85,-90,-90,85,145,155,160,160,382.5,SBD,
3,Jerneil Nivet,F,1988,Trinidad and Tobago,Raw,Open,54.25,57,125,-130,-130,125,62.5,65,-67.5,65,155,162.5,-175,162.5,352.5,SBD,
4,Edith Ruiz,F,1993,Belize,Raw,Open,56.5,57,120,127.5,132.5,132.5,60,-65,-65,60,142.5,-155,-155,142.5,335,SBD,
5,Monica Bare Diaz,F,1984,Panama,Raw,Open,56,57,60,65,70,70,-40,42.5,-45,42.5,80,85,87.5,87.5,200,SBD,
1,Emma Klime,F,2009,USA,Raw,Sub-Juniors,50,52,85,92.5,100,100,40,42.5,45,45,100,107.5,115,115,260,SBD,
2,Kaelie Burgess,F,2008,Belize,Raw,Sub-Juniors,51.1,52,80,87.5,92.5,92.5,35,37.5,-42.5,37.5,100,110,117.5,117.5,247.5,SBD,
1,Rhea Tsai,F,2008,Belize,Raw,Sub-Juniors,55.6,57,75,82.5,-87.5,82.5,45,47.5,50,50,117.5,130,-132.5,130,262.5,SBD,
1,Nicole Cantelon,F,2001,Canada,Raw,University,56.55,57,97.5,105,110,110,52.5,55,-57.5,55,135,-142.5,-142.5,135,300,SBD,
1,Reshon Superville,M,2004,Trinidad and Tobago,Raw,Juniors,65.5,66,182.5,190,-200,190,107.5,-112.5,-112.5,107.5,250,-260,260,260,557.5,SBD,
1,Carlos Pedrogo,M,2003,Puerto Rico,Raw,Juniors,73.3,74,200,215,225,225,137.5,147.5,152.5,152.5,215,230,242.5,242.5,620,SBD,
2,Manuel Peniche,M,2000,Mexico,Raw,Juniors,73.15,74,-215,220,-230,220,135,140,145,145,220,235,245,245,610,SBD,
3,Nicolas Parra,M,2002,Canada,Raw,Juniors,73.95,74,185,195,205,205,117.5,125,127.5,127.5,245,257.5,-278,257.5,590,SBD,
4,Miguel Ruiz,M,2000,Puerto Rico,Raw,Juniors,71.22,74,162.5,170,180,180,115,117.5,122.5,122.5,192.5,200,-207.5,200,502.5,SBD,
1,Huaiyu Tan,M,1977,USA,Raw,Masters 1,65.7,66,155,165,170,170,97.5,105,-107.5,105,205,215,220,220,495,SBD,
1,Doel Cotte,M,1981,Puerto Rico,Raw,Masters 1,73.35,74,145,155,162.5,162.5,110,117.5,-120,117.5,175,185,-195,185,465,SBD,
1,Jay McGrath,M,1968,Canada,Raw,Masters 2,65.7,66,155,165,168,168,108,-113,-113,108,172.5,182.5,187.5,187.5,463.5,SBD,
2,Phil Brown,M,1968,Canada,Raw,Masters 2,62.25,66,115,127.5,140,140,65,67.5,70,70,160,172.5,182.5,182.5,392.5,SBD,
1,Brian Mott,M,1970,USA,Raw,Masters 2,66.7,74,85,95,105,105,85,90,95,95,127.5,137.5,-145,137.5,337.5,SBD,
1,George Kern,M,1960,USA,Raw,Masters 3,65.85,66,107.5,112.5,-120,112.5,85,-90,-90,85,160,-162.5,,160,357.5,SBD,
1,Carlos Lewis,M,1958,USA,Raw,Masters 3,73.7,74,-190,190,207.5,207.5,125,-135,-135,125,180,-205,-215,180,512.5,SBD,
1,Sam Felts,M,1952,USA,Raw,Masters 4,58.4,59,85,90,100,100,87.5,-97.5,-97.5,87.5,115,125,135,135,322.5,SBD,
1,Dale Garlitz,M,1950,USA,Raw,Masters 4,72.05,74,152.5,162.5,165,165,97.5,102.5,105,105,172.5,180,185,185,455,SBD,
1,Dalton LaCoe,M,1995,USA,Raw,Open,55.5,59,177.5,185,190,190,115,120,122.5,122.5,250,265,-275.5,265,577.5,SBD,
2,Shay Grant,M,1995,Trinidad and Tobago,Raw,Open,57.8,59,110,122.5,-130,122.5,85,-90,-90,85,160,170,180,180,387.5,SBD,
1,Jonathan Garcia #1,M,1988,USA,Raw,Open,65.85,66,255,268,275.5,275.5,160,170,-178,170,235,247.5,257.5,257.5,703,SBD,
2,Andrew Villafuerte,M,1995,Canada,Raw,Open,65.4,66,172.5,185,192.5,192.5,110,115,122.5,122.5,227.5,240,250,250,565,SBD,
3,Mario Leos,M,1992,USA,Raw,Open,65.95,66,175,185,195,195,85,90,,90,212.5,222.5,-230,222.5,507.5,SBD,
4,Cristian Solís,M,1998,Panama,Raw,Open,65.55,66,160,-170,170,170,90,-97.5,-97.5,90,160,170,180,180,440,SBD,
1,Daniel Remulla,M,1991,Canada,Raw,Open,73,74,220,232.5,237.5,237.5,165,175,-180.5,175,245,257.5,265,265,677.5,SBD,
2,Krystan Hosein,M,1987,Trinidad and Tobago,Raw,Open,73.9,74,225,237.5,245,245,132.5,-137.5,-137.5,132.5,260,275,287.5,287.5,665,SBD,
3,Nicholas Farison,M,1991,USA,Raw,Open,73.45,74,232.5,242.5,-252.5,242.5,150,157.5,162.5,162.5,230,245,257.5,257.5,662.5,SBD,
4,Nils Lleonart,M,1993,Panama,Raw,Open,73.65,74,225,237.5,-250,237.5,135,142.5,-147.5,142.5,240,260,-275,260,640,SBD,
5,Leo Matura,M,1990,Belize,Raw,Open,73,74,207.5,-220,220,220,142.5,150,155,155,240,255,-267.5,255,630,SBD,
6,Ryan Rollock,M,1999,Trinidad and Tobago,Raw,Open,72.9,74,150,160,-165,160,105,110,-117.5,110,160,170,-185,170,440,SBD,
1,Eric Sanabria,M,2005,Belize,Raw,Sub-Juniors,57.95,59,135,155,165,165,-80,87.5,92.5,92.5,180,200,207.5,207.5,465,SBD,
2,James Castillo,M,2005,USA,Raw,Sub-Juniors,58.65,59,155,162.5,170,170,102.5,107.5,110,110,-185,185,-195,185,465,SBD,
3,Tylor Reed Fuenger,M,2005,USA,Raw,Sub-Juniors,58.25,59,-162.5,162.5,-170,162.5,87.5,97.5,-105,97.5,170,187.5,195,195,455,SBD,
1,Mikael Marín,M,2006,Puerto Rico,Raw,Sub-Juniors,64.75,66,152.5,162.5,-167.5,162.5,90,95,-100,95,195,206,-215,206,463.5,SBD,
1,Nabeel Rifai,M,2005,USA,Raw,Sub-Juniors,73.45,74,180,193,205,205,120,125,130,130,245,260,-273,260,595,SBD,
1,Nicolas Parra,M,2002,Canada,Raw,University,73.95,74,185,195,205,205,117.5,125,127.5,127.5,245,257.5,-278,257.5,590,SBD,
2,Eric Sanabria,M,2005,Belize,Raw,University,57.95,59,135,155,165,165,-80,87.5,92.5,92.5,180,200,207.5,207.5,465,SBD,
1,Phil Brown,M,1968,Canada,Raw,Special Olympics,62.25,66,115,127.5,140,140,65,67.5,70,70,160,172.5,182.5,182.5,392.5,SBD,
1,Amber Gomez,F,1978,US Virgin Islands,Single-ply,Masters 1,76,76,132.5,-150,-150,132.5,92.5,97.5,102.5,102.5,145,167.5,-182.5,167.5,402.5,SBD,
1,Danielle Hussey,F,1976,Canada,Single-ply,Masters 1,245,84+,145.5,-155.5,-155.5,145.5,-80,80,82.5,82.5,132.5,140,-145,140,368,SBD,
1,Kim Wilson,F,1968,US Virgin Islands,Single-ply,Masters 2,60.6,63,125,-135,140.5,140.5,65,70,72.5,72.5,147.5,163,-171,163,376,SBD,
1,Claudia Nagata,F,1968,USA,Single-ply,Masters 2,64.7,69,100,110,-120,110,70,77.5,-82.5,77.5,90,105,110,110,297.5,SBD,
1,Michal Harris,F,1970,USA,Single-ply,Masters 2,83.7,84,85,-97.5,105,105,47.5,60,67.5,67.5,130,140,145,145,317.5,SBD,
1,Susan Elwyn,F,1947,US Virgin Islands,Single-ply,Masters 4,46.75,47,80,-95.5,95.5,95.5,35,40,-42.5,40,105,117.5,125.5,125.5,261,SBD,
1,Carol Brady,F,1950,Canada,Single-ply,Masters 4,66.15,69,-95,95,-102.5,95,-62.5,62.5,-67.5,62.5,102.5,110.5,-118,110.5,268,SBD,
1,Simone Lai,F,1991,Canada,Single-ply,Open,50.5,52,155,165,170.5,170.5,75,-80,80,80,152.5,162.5,-167.5,162.5,413,SBD,
2,Juanita Najera,F,1981,USA,Single-ply,Open,52,52,115,130,137.5,137.5,75,80,-85,80,155,165,-175,165,382.5,SBD,
3,Anna Gonzalez #1,F,1994,USA,Single-ply,Open,51.5,52,115,120,127.5,127.5,67.5,-72.5,72.5,72.5,130,140,-147.5,140,340,SBD,
1,Casey Hill,F,1991,USA,Single-ply,Open,56.25,57,137.5,145,152.5,152.5,102.5,112.5,117.5,117.5,137.5,147.5,160,160,430,SBD,
1,Jenna Austin,F,2006,USA,Single-ply,Open,83.9,84,155,-162.5,-162.5,155,-60,60,-75,60,115,130,-137.5,130,345,SBD,
1,Ruth Yarali Gutierrez Lopez,F,1987,Nicaragua,Single-ply,Open,93.3,84+,200,-205,205,205,80,90,95,95,170,175,182.5,182.5,482.5,SBD,
1,Caroline Lagarde,F,2006,USA,Single-ply,Sub-Juniors,49.5,52,122.5,-130,-130,122.5,60,65,67.5,67.5,127.5,132.5,135,135,325,SBD,
2,Camille Crutcher,F,2007,USA,Single-ply,Sub-Juniors,48.2,52,100,105,115,115,-50,50,55,55,95,102.5,110,110,280,SBD,
1,Lila Cooper,F,2007,USA,Single-ply,Sub-Juniors,56.6,57,130,140,147.5,147.5,65,-72.5,-75,65,125,137.5,-145,137.5,350,SBD,
2,Brooklyn Mazzuca,F,2006,USA,Single-ply,Sub-Juniors,54.4,57,125,-132.5,132.5,132.5,65,72.5,77.5,77.5,125,137.5,-145,137.5,347.5,SBD,
1,Isabel Olivarez,F,2005,USA,Single-ply,Sub-Juniors,62.9,63,132.5,142.5,146.5,146.5,90,97.5,-102.5,97.5,137.5,145,-147.5,145,389,SBD,
1,Celeste Godinez,F,2008,USA,Single-ply,Sub-Juniors,67.3,69,132.5,145,150,150,82.5,-95,-95,82.5,130,135,-140,135,367.5,SBD,
1,Malaya Mitchell,F,2005,USA,Single-ply,Sub-Juniors,71.85,76,132.5,145,155,155,80,90,102.5,102.5,135,145,147.5,147.5,405,SBD,
2,Cali Cefalu,F,2005,USA,Single-ply,Sub-Juniors,73.1,76,150,160,170,170,80,87.5,-92.5,87.5,130,140,147.5,147.5,405,SBD,
1,Taylor Durham #1,F,2007,USA,Single-ply,Sub-Juniors,79.3,84,132.5,142.5,150,150,70,72.5,80,80,127.5,132.5,137.5,137.5,367.5,SBD,
1,Ezeiel Amponsah,M,2000,Canada,Raw,Juniors,104.8,105,272.5,292.5,-300,292.5,165,172.5,-177.5,172.5,305,335,-347.5,335,800,SBD,
2,Caleb Thomas-Alexis,M,2000,Trinidad and Tobago,Raw,Juniors,98.05,105,285,290,-292.5,290,150,155,-160,155,300,310,-320,310,755,SBD,
3,Nicholas Schzure,M,2003,USA,Raw,Juniors,103,105,245,265,275,275,145,152.5,-160,152.5,255,275,282.5,282.5,710,SBD,
4,Besal Harvir,M,2002,Canada,Raw,Juniors,101.6,105,225,237.5,250,250,145,150,-155,150,275,287.5,-302.5,287.5,687.5,SBD,
1,Louis Latour,M,2000,Canada,Raw,Juniors,119.6,120,275,290,297.5,297.5,190,200,210.5,210.5,292.5,307.5,330,330,838,SBD,
2,Joseph McDonald,M,2003,Trinidad and Tobago,Raw,Juniors,112.35,120,257.5,267.5,277.5,277.5,203,209,216,216,307.5,-322.5,-345,307.5,801,SBD,
3,William Murillo,M,2000,Belize,Raw,Juniors,106.7,120,225,250,-275,250,130,137.5,142.5,142.5,230,257.5,275,275,667.5,SBD,
1,Trey Forrest,M,2004,USA,Raw,Juniors,164.35,120+,275,295,310,310,150,160,170,170,240,255,-260,255,735,SBD,
2,Carsen Phillips,M,2002,Canada,Raw,Juniors,128.75,120+,255,265,270,270,165,172.5,177.5,177.5,250,272.5,-287.5,272.5,720,SBD,
1,David Noma,M,1982,Canada,Raw,Masters 1,97.7,105,175,200,220,220,125,150,157.5,157.5,175,215,225,225,602.5,SBD,
1,Lester Horacio Cuadra Vargas,M,1980,Nicaragua,Raw,Masters 1,117.8,120,240,-270,275,275,140,162.5,170,170,260,285,297.5,297.5,742.5,SBD,
2,Kenneth Cameron,M,1976,USA,Raw,Masters 1,120,120,242.5,250,265,265,170,-175,175,175,-295,300,-320.5,300,740,SBD,
3,Jonathan Macias,M,1982,Mexico,Raw,Masters 1,116.6,120,255,260,270,270,150,160,167.5,167.5,250,260,265,265,702.5,SBD,
1,Michael Jean Sr,M,1979,USA,Raw,Masters 1,180.3,120+,245,260,,260,165,177.5,185,185,240,255,270.5,270.5,715.5,SBD,
1,Scott Robertson,M,1970,Canada,Raw,Masters 2,119.65,120,290,310,-312.5,310,202.5,213,-218,213,255,273,-275,273,796,SBD,
2,Richard Acosta,M,1967,USA,Raw,Masters 2,119.25,120,202.5,212.5,222.5,222.5,132.5,140,142.5,142.5,230,242.5,252.5,252.5,617.5,SBD,
3,Keith Carlascio,M,1969,USA,Raw,Masters 2,113.45,120,165,172.5,182.5,182.5,115,120,125,125,195,205,212.5,212.5,520,SBD,
1,Robert Fuller,M,1970,Puerto Rico,Raw,Masters 2,151.75,120+,235,250,-257,250,157.5,167.5,174,174,247.5,267.5,276,276,700,SBD,
1,Brian Rock,M,1959,Canada,Raw,Masters 3,115.65,120,185,195,205.5,205.5,167.5,175.5,-183,175.5,180,190,200,200,581,SBD,
1,Mike Forster,M,1960,Canada,Raw,Masters 3,125.25,120+,-217.5,217.5,225.5,225.5,117.5,122.5,127.5,127.5,220,-227.5,233,233,586,SBD,
1,Michael Dollard,M,1949,USA,Raw,Masters 4,96.9,105,65,-175,-220,65,85,90,-142.5,90,150,175,-215,175,330,SBD,
1,Mack Hodges,M,1947,USA,Raw,Masters 4,113,120,155,162.5,-165,162.5,120,130,137.5,137.5,165,-177.5,-177.5,165,465,SBD,
1,Matthew Lewis Vena,M,,Canada,Raw,Open,104.6,105,310,325,-333,325,170,177.5,182.5,182.5,310,-312.5,-358,310,817.5,SBD,
2,Bogdan Nikolić,M,1993,Cayman Islands,Raw,Open,100.35,105,245,260,272.5,272.5,170,177.5,-180,177.5,285,300,310,310,760,SBD,
3,Jonhoi Vaughn,M,1988,Jamaica,Raw,Open,101.85,105,250,260,272.5,272.5,180,187.5,190,190,270,290,-307.5,290,752.5,SBD,
4,Rommel Luke,M,1998,Trinidad and Tobago,Raw,Open,99.8,105,245,255,262.5,262.5,142.5,150,155,155,265,275,-290,275,692.5,SBD,
5,Christopher Oquendo,M,1999,Puerto Rico,Raw,Open,103.65,105,210,225,-227.5,225,125,135,142.5,142.5,227.5,-240,247.5,247.5,615,SBD,
1,Tristan Nazelrod,M,1996,USA,Raw,Open,119.65,120,327.5,342.5,355.5,355.5,205,212.5,217.5,217.5,320,340,-352.5,340,913,SBD,
2,Michael Tuchscherer,M,1985,USA,Raw,Open,119.55,120,-300,300,317.5,317.5,192.5,202.5,-207.5,202.5,347.5,367.5,-386.5,367.5,887.5,SBD,
3,Bryce Krawczyk,M,1987,Canada,Raw,Open,117.85,120,292.5,312.5,320,320,187.5,200,205,205,335,352.5,-375,352.5,877.5,SBD,
4,Kaylon Cadle-Godoy,M,1994,Belize,Raw,Open,119.9,120,290,310,-320,310,215,222.5,-225,222.5,300,320,340,340,872.5,SBD,
5,Jordan McErlean,M,1992,Cayman Islands,Raw,Open,118.45,120,205,225,-240,225,145,150,-160,150,240,260,-275,260,635,SBD,
1,Ray Williams #1,M,1986,USA,Raw,Open,197.5,120+,415,440,-455,440,215,225,235,235,320,-330,-330,320,995,SBD,
2,Erik Willis,M,1990,Canada,Raw,Open,126.45,120+,265,280,295,295,230,240,-245,240,330,355,-371,355,890,SBD,
3,Jonathan Avril,M,1993,USA,Raw,Open,140.65,120+,295,-320,320,320,210,-220,-220,210,315,327.5,-350,327.5,857.5,SBD,
4,Colton Lajeunesse,M,1998,Canada,Raw,Open,144.95,120+,285,300,-310,300,185,195,205,205,260,280,-300,280,785,SBD,
5,Alexander Bodden,M,1994,Cayman Islands,Raw,Open,131.6,120+,170,175,182.5,182.5,110,125,-130,125,210,230,-240,230,537.5,SBD,
1,Cole Schirg,M,2006,USA,Raw,Sub-Juniors,102.65,105,225,242.5,257.5,257.5,142.5,150,-155,150,225,240,250,250,657.5,SBD,
2,Brayden Coy,M,2005,USA,Raw,Sub-Juniors,104.05,105,215,230,240,240,125,135,137.5,137.5,257.5,267.5,-280.5,267.5,645,SBD,
3,Daniel Foley #1,M,2006,Cayman Islands,Raw,Sub-Juniors,102.6,105,195,210,215,215,130,135,-140,135,245,260,-273,260,610,SBD,
1,Ezeiel Amponsah,M,2000,Canada,Raw,University,104.8,105,272.5,292.5,-300,292.5,165,172.5,-177.5,172.5,305,335,-347.5,335,800,SBD,
2,Daniel Foley #1,M,2006,Cayman Islands,Raw,University,102.6,105,195,210,215,215,130,135,-140,135,245,260,-273,260,610,SBD,
1,Roland Ebanks,M,,Cayman Islands,Raw,Special Olympics,130.6,120+,-35,40,50,50,-35,35,-40,35,65,75,-80,75,160,SBD,
1,Sara Roden,F,2000,USA,Raw,Juniors,75.4,76,-127.5,127.5,130,130,57.5,62.5,-65,62.5,125,132.5,142.5,142.5,335,SBD,
2,Jessica Phares,F,2004,USA,Raw,Juniors,75.1,76,110,115,122.5,122.5,60,-65,-65,60,127.5,135,-152.5,135,317.5,SBD,
1,Amirmarie Guzmán,F,2000,Puerto Rico,Raw,Juniors,121.55,84+,190.5,200.5,210,210,90,97.5,-102.5,97.5,182.5,-197.5,-207.5,182.5,490,SBD,
2,Sara Marcel Peña,F,2003,Dominican Republic,Raw,Juniors,121.25,84+,120,122.5,140,140,65,70,72.5,72.5,155,165,-170,165,377.5,SBD,
3,Arianna McCoy,F,2002,Cayman Islands,Raw,Juniors,112.3,84+,100,120,-140,120,70,80,-95,80,100,120,-140,120,320,SBD,
1,Tracy Arias,F,1980,Canada,Raw,Masters 1,72.6,76,150,160,165,165,57.5,62.5,65,65,177.5,187.5,195,195,425,SBD,
2,Emmannuelle Archambault,F,1976,Canada,Raw,Masters 1,74.6,76,125,132.5,140,140,87.5,92.5,95,95,172.5,185,190,190,425,SBD,
3,Dana Kaplan,F,1975,US Virgin Islands,Raw,Masters 1,69.85,76,122.5,132.5,140,140,67.5,72.5,-77.5,72.5,142.5,150,155,155,367.5,SBD,
4,Clair Crawford,F,1979,USA,Raw,Masters 1,73.1,76,-102.5,102.5,107.5,107.5,55,57.5,-60,57.5,122.5,130,-135,130,295,SBD,
5,Louane Silva,F,1982,Cayman Islands,Raw,Masters 1,74.7,76,-90,95,-100,95,-45,50,55,55,107.5,117.5,120,120,270,SBD,
1,Lillian Chumbly,F,1977,Canada,Raw,Masters 1,83.65,84,172.5,180,185.5,185.5,80,85,-90,85,160,172.5,177.5,177.5,448,SBD,
2,Mary Gonzalez,F,1981,Belize,Raw,Masters 1,83,84,165,175,-182.5,175,70,75,80,80,182.5,-192.5,192.5,192.5,447.5,SBD,
3,Rachael Diehl,F,1980,USA,Raw,Masters 1,83.8,84,112.5,-117.5,117.5,117.5,67.5,-72.5,-72.5,67.5,135,145,155,155,340,SBD,
1,Melissa Copeland,F,1977,USA,Raw,Masters 1,117.75,84+,195,205,213,213,128.5,135.5,-138,135.5,205,-217.5,-217.5,205,553.5,SBD,
2,April Hutchinson,F,1976,Canada,Raw,Masters 1,103.75,84+,165,-172.5,177.5,177.5,82.5,-85,-85,82.5,212.5,-225,-225,212.5,472.5,SBD,
3,Rebecca Rutkoski,F,1979,USA,Raw,Masters 1,97.75,84+,147.5,155,160,160,72.5,75,-77.5,75,150,157.5,-165,157.5,392.5,SBD,
4,Rhonda Sanchez,F,1982,Trinidad and Tobago,Raw,Masters 1,90.35,84+,-125,125,137.5,137.5,-57.5,57.5,-65,57.5,132.5,142.5,-157.5,142.5,337.5,SBD,
1,Sylvia Atkinson,F,,Canada,Raw,Masters 2,72.35,76,170,180.5,185.5,185.5,75,80,85,85,183,190.5,196,196,466.5,SBD,
2,Joah Iannotta,F,,USA,Raw,Masters 2,75.65,76,143,150,157.5,157.5,108,113,118,118,172.5,183.5,191,191,466.5,SBD,
3,Cynthia Line,F,1968,USA,Raw,Masters 2,74.9,76,120,125,132.5,132.5,70,75,77.5,77.5,152.5,162.5,-170,162.5,372.5,SBD,
1,Sonia Ramos,F,1970,Mexico,Raw,Masters 2,77.25,84,125,130,132.5,132.5,65,68,-70,68,132.5,137.5,145.5,145.5,346,SBD,
2,Jillian Sproul,F,1972,Canada,Raw,Masters 2,77.15,84,117.5,125,130,130,63,67.5,70.5,70.5,130,137.5,-142.5,137.5,338,SBD,
1,Lilyan Jackson,F,1970,USA,Raw,Masters 2,172.3,84+,147.5,-155,155,155,117.5,122.5,127.5,127.5,175,187.5,-197.5,187.5,470,SBD,
1,Pamela King,F,1959,Canada,Raw,Masters 3,75.05,76,107.5,115,118,118,67.5,73,-75,73,122.5,132.5,137.5,137.5,328.5,SBD,
1,Susan Bonneau,F,1960,Canada,Raw,Masters 3,97.75,84+,100,108,113,113,45,53,58,58,105,115.5,-120.5,115.5,286.5,SBD,
DQ,Vicki Brackett,F,1957,USA,Raw,Masters 3,127.55,84+,-127.5,-127.5,-127.5,,70,75,80,80,142.5,147.5,150,150,,SBD,
1,Sylvia Gaucher,F,1953,Canada,Raw,Masters 4,80.2,84,100,-105,-107.5,100,51,53.5,55.5,55.5,126,136,-138.5,136,291.5,SBD,
2,Linda Rousseau,F,1953,Canada,Raw,Masters 4,78.7,84,95,100.5,-117,100.5,45,50,-52.5,50,110,-117.5,117.5,117.5,268,SBD,
1,Sami DePass,F,1997,Jamaica,Raw,Open,74.8,76,180,190.5,198,198,102.5,107.5,112.5,112.5,207.5,221,230,230,540.5,SBD,
2,Claire Zai,F,1994,USA,Raw,Open,75,76,175,185,193,193,110,118,-121,118,-202.5,217.5,-223,217.5,528.5,SBD,
3,Christine Castro,F,1992,Canada,Raw,Open,74.65,76,165,175,180,180,90,-95,-95,90,190,200,-205,200,470,SBD,
4,Lily Riggs,F,1999,Canada,Raw,Open,75.2,76,165,172.5,177.5,177.5,85,90,92.5,92.5,180,192.5,-200,192.5,462.5,SBD,
5,Rebecka Gervais-Charles,F,1996,Trinidad and Tobago,Raw,Open,75.3,76,112.5,117.5,-125,117.5,72.5,75,77.5,77.5,130,137.5,140,140,335,SBD,
DQ,Danielle Todman,F,1984,US Virgin Islands,Raw,Open,73.6,76,130,135,-142.5,135,-87.5,-87.5,,,,,,,,SBD,
1,Michelle Robbins,F,1997,USA,Raw,Open,81.9,84,170,180,187.5,187.5,117.5,122.5,-127.5,122.5,212.5,220,225,225,535,SBD,
2,Marianne Groleau,F,1998,Canada,Raw,Open,83,84,190,200,205.5,205.5,82.5,90,-92.5,90,195,205,-210,205,500.5,SBD,
3,Aliza Tessler,F,1994,USA,Raw,Open,82.45,84,150,165,-175,165,97.5,107.5,-112.5,107.5,182.5,195,-205,195,467.5,SBD,
4,Deresay Alleyne,F,1993,Trinidad and Tobago,Raw,Open,82.2,84,142.5,147.5,152.5,152.5,-100,100,105,105,185,192.5,200,200,457.5,SBD,
5,Lisa Kitagawa,F,1991,Canada,Raw,Open,76.05,84,147.5,157.5,167.5,167.5,80,82.5,-85,82.5,180,192.5,-200,192.5,442.5,SBD,
6,Quinell Smith,F,1994,Trinidad and Tobago,Raw,Open,83.05,84,167.5,175,-185,175,65,70,72.5,72.5,182.5,192.5,-207.5,192.5,440,SBD,
7,Laura Estrella,F,1993,Dominican Republic,Raw,Open,83.8,84,152.5,162.5,170,170,80,82.5,90,90,157.5,167.5,177.5,177.5,437.5,SBD,
1,Luella Bowden,F,2005,USA,Raw,Open,134.65,84+,232.5,245.5,265,265,110,117.5,-122.5,117.5,180,-200,200,200,582.5,SBD,
2,Marisa Ruland,F,1996,USA,Raw,Open,91.2,84+,-182.5,182.5,197.5,197.5,87.5,95,97.5,97.5,167.5,182.5,190,190,485,SBD,
DQ,Shania Espinoza-Britton,F,1998,Cayman Islands,Raw,Open,124.5,84+,90,-105,105,105,-60,-60,-60,,-100,110,120,120,,SBD,
1,Dariam Salmerón,F,2006,Panama,Raw,Sub-Juniors,75.5,76,145,150.5,155,155,65,70,75,75,150,160.5,-165,160.5,390.5,SBD,
2,Sarah Rogers,F,2005,USA,Raw,Sub-Juniors,73.8,76,105,115,117.5,117.5,50,55,-57.5,55,125,135,-142.5,135,307.5,SBD,
1,Shanti Khalsa,F,2006,USA,Raw,Sub-Juniors,83.9,84,127.5,140,145,145,55,-65,-65,55,127.5,135,147.5,147.5,347.5,SBD,
2,Lauren Simms,F,2005,Canada,Raw,Sub-Juniors,79.65,84,115,122.5,-127.5,122.5,55,57.5,60,60,140,150,-165,150,332.5,SBD,
3,Mattea Fable Ahlijah,F,2006,Canada,Raw,Sub-Juniors,83.5,84,95,105,112.5,112.5,45,50,55,55,100,110,117.5,117.5,285,SBD,
1,Kaylee Mann,F,2006,USA,Raw,Sub-Juniors,115.9,84+,160,167.5,172.5,172.5,67.5,72.5,-77.5,72.5,132.5,140,145,145,390,SBD,
2,Marie Claire Slaughter,F,2005,Panama,Raw,Sub-Juniors,113.9,84+,145,155,-162.5,155,67.5,75,-77.5,75,115,122.5,130,130,360,SBD,
1,Amirmarie Guzmán,F,2000,Puerto Rico,Raw,University,121.55,84+,190.5,200.5,210,210,90,97.5,-102.5,97.5,182.5,-197.5,-207.5,182.5,490,SBD,
2,Arianna McCoy,F,2002,Cayman Islands,Raw,University,112.3,84+,100,120,-140,120,70,80,-95,80,100,120,-140,120,320,SBD,
1,Philip Truong,M,2000,USA,Raw,Juniors,91.9,93,252.5,267.5,275,275,170,182.5,190.5,190.5,275,295,300,300,765.5,SBD,
2,Johnathan Asselstine,M,2000,Canada,Raw,Juniors,92.5,93,250,265,-275,265,172.5,180,-183,180,275,295,-310,295,740,SBD,
3,Emmanuel Weber,M,2002,Canada,Raw,Juniors,92.05,93,-250,250,-265,250,142.5,147.5,-150,147.5,257.5,272.5,-285,272.5,670,SBD,
4,Johann Rodney,M,2001,Trinidad and Tobago,Raw,Juniors,92.3,93,215,225,230,230,142.5,145,147.5,147.5,270,280,-287.5,280,657.5,SBD,
5,Kyle Ali,M,2002,Belize,Raw,Juniors,91.05,93,212.5,220,-230,220,140,-147.5,-147.5,140,237.5,250,-265,250,610,SBD,
6,Gabriel Rodriguez,M,2004,Puerto Rico,Raw,Juniors,84.6,93,207.5,217.5,-230,217.5,110,117.5,-120,117.5,222.5,232.5,245,245,580,SBD,
DQ,Cameron Lunsford,M,2002,USA,Raw,Juniors,92,93,-280,-280,-280,,160,165,170,170,255,-257.5,-257.5,255,,SBD,
1,Michael Garozzo,M,1982,USA,Raw,Masters 1,92.8,93,260,275,282.5,282.5,152.5,160,165,165,290.5,308.5,321,321,768.5,SBD,
2,Layne Norton,M,1981,USA,Raw,Masters 1,92.25,93,255,270,280,280,155,165,167.5,167.5,288,308,320.5,320.5,768,SBD,
3,Gabriel García Corona,M,1975,Mexico,Raw,Masters 1,92.05,93,282.5,-292.5,-292.5,282.5,167.5,172.5,-177.5,172.5,280,291,-295,291,746,SBD,
1,Edward Ruland,M,1972,USA,Raw,Masters 2,92.7,93,195,-215,215,215,157.5,162.5,170,170,227.5,252.5,260,260,645,SBD,
1,Claudio Lora,M,1953,Dominican Republic,Raw,Masters 4,88.05,93,190,198.5,207.5,207.5,127.5,135,140.5,140.5,185,195,205,205,553,SBD,
1,Jevon DaCosta,M,1992,Jamaica,Raw,Open,91.5,93,265,275,280,280,190,-200,-200,190,295,315,-327.5,315,785,SBD,
2,Thomas Gear,M,1990,Canada,Raw,Open,90.7,93,240,250,257.5,257.5,187.5,195,-200,195,295,305,-317.5,305,757.5,SBD,
3,Obryan Rodríguez,M,1997,Puerto Rico,Raw,Open,92.15,93,240,-250,250,250,137.5,147.5,150,150,255,267.5,275,275,675,SBD,
4,Rayford Brown,M,1987,Belize,Raw,Open,88.4,93,212.5,230,-240,230,155,160,-172.5,160,255,262.5,282.5,282.5,672.5,SBD,
5,Mark Baptiste,M,1997,Trinidad and Tobago,Raw,Open,89.65,93,215,227.5,-232.5,227.5,120,-125,125,125,225,-237.5,-242.5,225,577.5,SBD,
6,Reginald Byers,M,1990,US Virgin Islands,Raw,Open,90.25,93,75,95,120,120,70,95,-117.5,95,140,170,187.5,187.5,402.5,SBD,
DQ,Khalid Usher,M,1997,Belize,Raw,Open,92.5,93,-272.5,-272.5,-272.5,,145,-162.5,-162.5,145,280,290,295,295,,SBD,
1,Broc Nye,M,2005,USA,Raw,Sub-Juniors,90.6,93,220,230,240.5,240.5,135,140,147.5,147.5,-210,210,225,225,613,SBD,
2,David Syrotchen,M,2008,USA,Raw,Sub-Juniors,90.7,93,210,220,230.5,230.5,122.5,-127.5,-127.5,122.5,225,230,247.5,247.5,600.5,SBD,
1,Johann Rodney,M,2001,Trinidad and Tobago,Raw,University,92.3,93,215,225,230,230,142.5,145,147.5,147.5,270,280,-287.5,280,657.5,SBD,
2,Kyle Ali,M,2002,Belize,Raw,University,91.05,93,212.5,220,-230,220,140,-147.5,-147.5,140,237.5,250,-265,250,610,SBD,
3,Gabriel Rodriguez,M,2004,Puerto Rico,Raw,University,84.6,93,207.5,217.5,-230,217.5,110,117.5,-120,117.5,222.5,232.5,245,245,580,SBD,
G,Narissa Sho,F,1992,Belize,Raw,Guest,69.35,76,127.5,135,142.5,142.5,-67.5,67.5,-70,67.5,132.5,142.5,-150,142.5,352.5,SBD,
1,María Rojas Solís,F,2002,Costa Rica,Raw,Juniors,59.45,63,135,142.5,146.5,146.5,67.5,70,72.5,72.5,150,160,166,166,385,SBD,
2,Isabelle Louie,F,2000,Canada,Raw,Juniors,61.2,63,95,105,115,115,52.5,60,-65,60,117.5,-130,130,130,305,SBD,
3,María Alejandra Jiménez,F,2001,Puerto Rico,Raw,Juniors,61.75,63,-100,105,107.5,107.5,47.5,55,-60,55,105,115,-132.5,115,277.5,SBD,
1,Pascale Mercier,F,2000,Canada,Raw,Juniors,68.4,69,140,147.5,155,155,87.5,92.5,-95.5,92.5,157.5,170,-182.5,170,417.5,SBD,
2,August Reeves,F,2001,USA,Raw,Juniors,68.55,69,112.5,120,125,125,55,57.5,60,60,115,120,-132.5,120,305,SBD,
1,Morayo Akinsanya,F,1982,Canada,Raw,Masters 1,60.2,63,-130,130,-135,130,67.5,72.5,-75,72.5,168,173,178,178,380.5,SBD,
2,Nimisha Mitha,F,1979,USA,Raw,Masters 1,60.85,63,70,80,85,85,45,50,52.5,52.5,97.5,107.5,112.5,112.5,250,SBD,
1,Alexa Sperske,F,1982,USA,Raw,Masters 1,68.9,69,-145,145,153,153,75,77.5,-80,77.5,180,190.5,195.5,195.5,426,SBD,
2,Jeri Munro,F,1979,Canada,Raw,Masters 1,68.25,69,125,130,-132.5,130,65,67.5,-70,67.5,152.5,162.5,165,165,362.5,SBD,
3,Yaritza Rivera,F,1979,Puerto Rico,Raw,Masters 1,68.15,69,110,117.5,-125,117.5,50,57.5,60,60,125,135,142.5,142.5,320,SBD,
4,Dana Manning,F,1977,USA,Raw,Masters 1,67.6,69,100,107.5,112.5,112.5,45,50,-57.5,50,125,135,-142.5,135,297.5,SBD,
5,Claire Rafferty,F,1979,Cayman Islands,Raw,Masters 1,66.2,69,-80,80,90,90,35,37.5,42.5,42.5,90,100,110,110,242.5,SBD,
1,Christine Nguyen,F,1966,Canada,Raw,Masters 2,61.05,63,-122.5,122.5,128,128,50,-55,-55,50,138,-140.5,-140.5,138,316,SBD,
2,Michelle Carlascio,F,1971,USA,Raw,Masters 2,59.75,63,70,-72.5,72.5,72.5,45,50,55,55,95,102.5,-105,102.5,230,SBD,
1,Kelly Wharton,F,1962,Canada,Raw,Masters 3,61.6,63,95,102.5,107.5,107.5,47.5,52.5,55,55,107.5,115,122.5,122.5,285,SBD,
2,Sara Diaz,F,1958,Panama,Raw,Masters 3,60,63,35,37.5,40,40,27.5,30,-32.5,30,70,75,-80,75,145,SBD,
1,Arlene van Diepen,F,1957,Canada,Raw,Masters 3,63.9,69,90,95,98,98,50,52.5,-55,52.5,127.5,137.5,143,143,293.5,SBD,
1,Abbey Moon,F,1944,US Virgin Islands,Raw,Masters 4,57.55,63,40,50,52.5,52.5,42.5,-47.5,47.5,47.5,85,92.5,-95,92.5,192.5,SBD,
1,Gale Williams,F,1947,USA,Raw,Masters 4,66.45,69,82.5,87.5,91,91,55,60,62.5,62.5,122.5,130,138,138,291.5,SBD,
1,Julia Williams #1,F,1990,USA,Raw,Open,62.2,63,150,155,160,160,87.5,92.5,95,95,170,180,-185,180,435,SBD,
2,Pamela Santos,F,1999,Panama,Raw,Open,61.75,63,137.5,147.5,-152.5,147.5,70,77.5,-82.5,77.5,155,172.5,182.5,182.5,407.5,SBD,
3,Charissa Grant,F,1996,Trinidad and Tobago,Raw,Open,60.9,63,150,-160,-160,150,65,70,-72.5,70,170,175,185,185,405,SBD,
4,Jacqueline Alas,F,1997,Belize,Raw,Open,62.9,63,125,135,-140,135,57.5,62.5,65,65,162.5,-172.5,-172.5,162.5,362.5,SBD,
1,Shannon Mutch,F,1993,Canada,Raw,Open,67.65,69,172.5,183,188,188,95,100,-102.5,100,172.5,180,185,185,473,SBD,
2,Julie-Anne Pelletier-Grenier,F,1993,Canada,Raw,Open,68.05,69,152.5,162.5,170,170,90,-95,-95,90,180,190,-200,190,450,SBD,
3,Joylynne Smith,F,1989,Belize,Raw,Open,68.15,69,125,132.5,137.5,137.5,60,62.5,67.5,67.5,150,157.5,167.5,167.5,372.5,SBD,
1,Isabel Ugalde,F,2007,Costa Rica,Raw,Sub-Juniors,60.8,63,125,132.5,137.5,137.5,75.5,-80,-80,75.5,130,135,140,140,353,SBD,
2,Kenedee Rowen,F,2005,USA,Raw,Sub-Juniors,61.6,63,127.5,132.5,137.5,137.5,67.5,-70,-70,67.5,130,135,-150,135,340,SBD,
3,Aurayanna Shepherd,F,2008,Belize,Raw,Sub-Juniors,61.8,63,80,87.5,92.5,92.5,42.5,47.5,-50,47.5,100,112.5,117.5,117.5,257.5,SBD,
DQ,Amorette Banman,F,2008,Belize,Raw,Sub-Juniors,61.7,63,-90,90,100,100,-52.5,-55,-55,,100,105,107.5,107.5,,SBD,
1,Ava Lacasse,F,2008,USA,Raw,Sub-Juniors,63.6,69,107.5,110,115,115,50,55,60,60,117.5,-125,125,125,300,SBD,
1,María Rojas Solís,F,2002,Costa Rica,Raw,University,59.45,63,135,142.5,146.5,146.5,67.5,70,72.5,72.5,150,160,166,166,385,SBD,
2,Isabelle Louie,F,2000,Canada,Raw,University,61.2,63,95,105,115,115,52.5,60,-65,60,117.5,-130,130,130,305,SBD,
3,María Alejandra Jiménez,F,2001,Puerto Rico,Raw,University,61.75,63,-100,105,107.5,107.5,47.5,55,-60,55,105,115,-132.5,115,277.5,SBD,
1,Esteban Navarro,M,2004,Costa Rica,Raw,Juniors,82.5,83,250,265.5,270,270,170,175,-180,175,-250,260,270,270,715,SBD,
2,Tung Hsuan Yen,M,2001,Canada,Raw,Juniors,79.85,83,205,215,225,225,185.5,193,-195.5,193,270,-287,-297,270,688,SBD,
3,Jorge Guzmán,M,2000,Mexico,Raw,Juniors,81.3,83,215,227.5,-240,227.5,145,-150,150,150,265,280,295,295,672.5,SBD,
4,Dafydd Herico,M,2000,USA,Raw,Juniors,82.25,83,217.5,232.5,240,240,145,152.5,-160,152.5,255,270,280,280,672.5,SBD,
5,Derek Demmans,M,2000,Canada,Raw,Juniors,82.2,83,230,240,247.5,247.5,145,-150,150,150,255,265,-277.5,265,662.5,SBD,
6,Evan Gonsorcik,M,2003,USA,Raw,Juniors,79.3,83,190,197.5,-205,197.5,127.5,132.5,135,135,247.5,265,275,275,607.5,SBD,
7,Leonardo Jimenez,M,2003,Dominican Republic,Raw,Juniors,79.15,83,195,205,212.5,212.5,115,122.5,-127.5,122.5,235,245,-252.5,245,580,SBD,
1,Steven Cormier,M,,Canada,Raw,Masters 1,78.85,83,242.5,255,266.5,266.5,160,-165,165,165,275,287.5,-311.5,287.5,719,SBD,
2,Jonathan Losa,M,1982,USA,Raw,Masters 1,82.7,83,222.5,235,247.5,247.5,185,195,-200.5,195,235,245,-252.5,245,687.5,SBD,
3,Todd Straub,M,1979,USA,Raw,Masters 1,82.85,83,212.5,227.5,232.5,232.5,167.5,-177.5,-177.5,167.5,260,280,-288.5,280,680,SBD,
4,Patrick Rodrigue,M,1978,Canada,Raw,Masters 1,81.35,83,195,207.5,-212.5,207.5,117.5,-125,-125,117.5,230,245,-255,245,570,SBD,
1,John LaFlamme,M,1950,USA,Raw,Masters 4,82.15,83,175,185,193.5,193.5,90,97.5,102.5,102.5,200,220,231,231,527,SBD,
1,Kafui Hotsonyame,M,1993,Canada,Raw,Open,82.2,83,257.5,273,285.5,285.5,160,167.5,175,175,307.5,327.5,340,340,800.5,SBD,
2,Diego Ramírez,M,1991,Mexico,Raw,Open,82.7,83,225,237.5,-245,237.5,150,160,165,165,260,275,-285,275,677.5,SBD,
3,Makesi Leach,M,1993,Trinidad and Tobago,Raw,Open,82.9,83,210,220,-225,220,140,142.5,-145,142.5,280,-290,-290,280,642.5,SBD,
1,Keegan Bucci,M,2005,USA,Raw,Sub-Juniors,78.2,83,205,220,-225,220,127.5,132.5,138,138,255.5,273,-290.5,273,631,SBD,
2,Carlos Soto,M,2006,Mexico,Raw,Sub-Juniors,81.45,83,207.5,215,220,220,132.5,-137.5,-137.5,132.5,245,-260,260,260,612.5,SBD,
3,Rafael Camero,M,2005,Panama,Raw,Sub-Juniors,82.1,83,202.5,207.5,210,210,115,120,,120,245,257.5,-275,257.5,587.5,SBD,
4,Brendan Foley,M,2008,Cayman Islands,Raw,Sub-Juniors,79.1,83,125,142.5,-162.5,142.5,-95,97.5,107.5,107.5,165,172.5,-182.5,172.5,422.5,SBD,
1,Esteban Navarro,M,2004,Costa Rica,Raw,University,82.5,83,250,265.5,270,270,170,175,-180,175,-250,260,270,270,715,SBD,
2,Tung Hsuan Yen,M,2001,Canada,Raw,University,79.85,83,205,215,225,225,185.5,193,-195.5,193,270,-287,-297,270,688,SBD,
3,Leonardo Jimenez,M,2003,Dominican Republic,Raw,University,79.15,83,195,205,212.5,212.5,115,122.5,-127.5,122.5,235,245,-252.5,245,580,SBD,
1,Kiel Oalmann,M,2004,USA,Single-ply,Juniors,104,105,200,-217.5,217.5,217.5,117.5,-130,-130,117.5,165,182.5,-207.5,182.5,517.5,SBD,
1,Marco Reyes #2,M,1980,Mexico,Single-ply,Masters 1,87.6,93,-240,240,-245,240,120,130,135,135,200,210,-215,210,585,SBD,
1,John MacDonald #1,M,,Canada,Single-ply,Masters 1,119.35,120,320,330,-340,330,235,245,,245,245,275,302.5,302.5,877.5,SBD,
2,Lester Horacio Cuadra Vargas,M,1980,Nicaragua,Single-ply,Masters 1,117.5,120,260,280,310,310,140,155,-170,155,260,300,320,320,785,SBD,
1,Steve Mann #1,M,1975,USA,Single-ply,Masters 1,122.5,120+,200,-337.5,,200,100,,,100,227.5,260,302.5,302.5,602.5,SBD,
1,Tony McInerney,M,1972,Cayman Islands,Single-ply,Masters 2,100.95,105,240,252.5,-255,252.5,140,147.5,150,150,260,-280,-280,260,662.5,SBD,
1,Thomas Cencich,M,1960,USA,Single-ply,Masters 3,91.8,93,125,-205.5,-207.5,125,198,199,-200,199,150,200,210,210,534,SBD,
1,Claudio Lora,M,1953,Dominican Republic,Single-ply,Masters 4,87.7,93,202.5,212.5,220.5,220.5,142.5,145,-155.5,145,190,200,210,210,575.5,SBD,
1,Javier Batista,M,1991,Panama,Single-ply,Open,74.1,83,210,215,-220,215,150,160,165,165,230,240,245,245,625,SBD,
2,Noel Alexander Rodríguez Flores,M,1984,Nicaragua,Single-ply,Open,80.4,83,200,230,252.5,252.5,105,122.5,135,135,200,225,-230,225,612.5,SBD,
3,Zared Mc Laughlin,M,1992,Cayman Islands,Single-ply,Open,78.65,83,210,227.5,240,240,125,130,-140,130,230,240,-275,240,610,SBD,
1,Andres Soto,M,1998,Costa Rica,Single-ply,Open,92.5,93,255,265,275,275,175,-185,190,190,260,275,-282.5,275,740,SBD,
1,Pete Nees,M,1984,USA,Single-ply,Open,104.85,105,282.5,300,-315,300,192.5,207.5,215,215,250,270,277.5,277.5,792.5,SBD,
2,Diego Cuarezma Zapata,M,1995,Nicaragua,Single-ply,Open,104.85,105,210,225,-245,225,110,122.5,125,125,200,220,-230,220,570,SBD,
DQ,Nelson Martínez,M,1986,USA,Single-ply,Open,104.65,105,315,330,-348,330,-245,-245,-245,,255,265,275,275,,SBD,
1,Mark Leebrick,M,1994,USA,Single-ply,Open,116.95,120,305,325,340,340,210,222.5,-230,222.5,230,245,255,255,817.5,SBD,
2,Eddie Mends,M,1993,USA,Single-ply,Open,106,120,180,195,205,205,172.5,182.5,187.5,187.5,230,240,250,250,642.5,SBD,
DQ,Michael Fernandez Barrantes,M,1982,Costa Rica,Single-ply,Open,119.95,120,-335,-335,-335,,-230,-230,230,230,255,265,-285,265,,SBD,
1,Carlos Manuel Campos Murillo,M,1979,Costa Rica,Single-ply,Open,151.8,120+,375,-427.5,,375,105,305,-375,305,300,-350,-350,300,980,SBD,
1,Bryce Toups,M,2005,USA,Single-ply,Sub-Juniors,63.85,66,165,177.5,185,185,117.5,-127.5,-133,117.5,150,-170,-170,150,452.5,SBD,
1,Beau Perrilloux,M,2005,USA,Single-ply,Sub-Juniors,71.6,74,-215,215,-232.5,215,112.5,-122.5,-122.5,112.5,192.5,205,-215,205,532.5,SBD,
